version 1
nodes
  0 "Pelvis" -1
  1 "Chest1" 0
  2 "Chest2" 1
  3 "Neck" 2
  4 "Head" 3
  5 "LeftEar" 4
  6 "RightEar" 4
  7 "LeftEyeBrow" 4
  8 "LeftEyeBrowFrontTip" 7
  9 "LeftEyeBrowBackTip" 7
  10 "RightEyeBrow" 4
  11 "RightEyeBrowFrontTip" 10
  12 "RightEyeBrowBackTip" 10
  13 "LeftCheek" 4
  14 "RightCheek" 4
  15 "LeftLipCorner" 4
  16 "RightLipCorner" 4
  17 "LeftShoulder" 2
  18 "LeftForearm" 17
  19 "LeftHand" 18
  20 "LeftBall" 19
  21 "RightShoulder" 2
  22 "RightForearm" 21
  23 "RightHand" 22
  24 "RightBall" 23
  25 "LeftThigh" 0
  26 "LeftLeg1" 25
  27 "LeftLeg2" 26
  28 "LeftFoot" 27
  29 "RightThigh" 0
  30 "RightLeg1" 29
  31 "RightLeg2" 30
  32 "RightFoot" 31
  33 "Hair" 4
  34 "jiggle_hair1" 33
  35 "jiggle_hair2" 33
  36 "jiggle_hair3" 33
  37 "jiggle_hair4" 4
  38 "Tail1" 0
  39 "Tail2" 38
  40 "Tail3" 39
  41 "jiggle_tail2" 40
  42 "jiggle_tail1" 38
end
skeleton
time 0
    0 0.000000 6.789063 27.156250 1.570794 0.208742 -1.570794
    1 8.036826 0.032124 0.000023 -0.000001 0.000000 0.415505
    2 5.517455 -0.083860 0.000016 -0.000001 0.000002 0.444327
    3 3.887020 4.203533 0.000013 -0.000003 0.000003 0.837255
    4 5.611969 1.485869 0.000044 0.000001 0.000005 0.127585
    5 9.488438 0.810247 -5.132460 0.000002 0.000000 0.000000
    6 9.488346 0.810251 5.132556 -0.000002 0.000000 0.000004
    7 8.404396 -4.871206 -3.644152 2.550085 -0.093821 -0.185700
    8 0.014610 1.850132 0.028690 -0.097987 0.011430 -0.003859
    9 0.017681 -1.815399 -0.060936 0.166298 -0.020263 0.001324
    10 8.404331 -4.871204 3.642911 -0.591512 -0.093804 2.955896
    11 -0.014610 1.850130 0.028690 -0.097987 -0.011430 0.003858
    12 -0.017685 -1.815398 -0.060936 0.166295 0.020262 -0.001325
    13 1.357937 -4.664677 -3.532519 2.550088 -0.093820 -0.185699
    14 1.357868 -4.664675 3.532471 -2.550083 -0.093820 -0.311380
    15 0.857861 -7.590334 -2.795617 2.550086 -0.093820 -0.185697
    16 0.857807 -7.590332 2.795562 -2.550083 -0.093820 -0.311380
    17 -1.745634 -2.791809 -3.168081 0.000002 0.000000 0.389389
    18 -5.182186 -0.110051 0.041316 -0.000004 0.000004 0.505764
    19 -6.491277 0.817819 -0.536307 -0.034107 -0.148114 0.251774
    20 -6.352962 1.491310 0.271884 -0.000001 -0.000001 0.522272
    21 -1.745651 -2.791804 3.168046 -0.000006 0.000000 0.389389
    22 -5.182182 -0.110051 -0.041338 0.000003 0.000001 0.505764
    23 -6.491281 0.817820 0.536250 0.034105 -0.148114 0.241704
    24 -6.155367 1.491308 1.595470 0.146308 0.034572 0.508310
    25 -0.092009 -0.043583 -3.564748 0.017056 -0.166696 1.677068
    26 -5.597141 -0.284338 -0.190242 -0.083930 0.325273 -1.755811
    27 -2.962649 -3.158282 -0.861480 -0.100583 0.066012 1.723351
    28 -15.188164 -0.601193 0.616671 0.120337 -0.137305 0.705532
    29 -0.092022 -0.043575 3.564749 -0.017061 -0.166696 1.682729
    30 -5.226591 -0.284342 2.011692 -0.265949 0.347313 -1.825973
    31 -2.770769 -3.158283 -1.357301 -0.629458 -0.071179 1.818683
    32 -15.103239 -0.601171 1.718367 -0.019090 -0.479890 0.738757
    33 12.433945 3.320014 0.000114 0.000000 0.000000 -0.000004
    34 7.604534 -5.106147 0.000072 0.000000 0.000000 0.000006
    35 6.629547 2.221943 0.000061 0.000000 0.000000 0.000006
    36 -1.742813 5.362364 -0.000018 0.000000 -..00000 0.000005
    37 -0.282265 6.086252 -0.000005 0.000000 -..00000 0.000001
    38 -2.139698 2.957123 -0.000007 0.000000 0.000000 0.000002
    39 -5.568483 0.937140 -0.000011 0.000000 0.000000 0.000002
    40 -4.175209 -4.389515 -0.000003 0.000000 0.000000 -0.000007
    41 -0.604677 -6.659035 0.000006 0.000000 -..00000 0.000002
    42 -3.188299 5.110289 -0.000012 0.000000 0.000000 0.000000
end
