version 1
nodes
  0 "Pelvis" -1
  1 "Chest1" 0
  2 "Chest2" 1
  3 "Neck" 2
  4 "Head" 3
  5 "Nose" 4
  6 "RightCheek" 4
  7 "LeftCheek" 4
  8 "Mouth" 4
  9 "UpperTeeth" 8
  10 "UpperTeethLeft" 9
  11 "UpperTeethRight" 9
  12 "RightLipUpMiddle" 8
  13 "RightCornerLip" 8
  14 "LeftCornerLip" 8
  15 "LeftLipUpMiddle" 8
  16 "LeftLipUp" 8
  17 "RightLipUp" 8
  18 "Javv" 8
  19 "RightLipMiddle" 18
  20 "LeftLipMiddle" 18
  21 "RightLip" 18
  22 "LeftLip" 18
  23 "LowerTeeth" 18
  24 "LowerTeethLeft" 23
  25 "LowerTeethRight" 23
  26 "LeftEye" 4
  27 "LeftEyeLidUpper" 26
  28 "LeftEyeLidLowerer" 26
  29 "RightEye" 4
  30 "RightEyeLidUpper" 29
  31 "RightEyeLidLowerer" 29
  32 "RightShoulder" 2
  33 "LeftShoulder" 2
  34 "RightForearm" 32
  35 "LeftForearm" 33
  36 "RightThigh" 0
  37 "RightLeg1" 36
  38 "RightLeg2" 37
  39 "RightButt" 36
  40 "LeftThigh" 0
  41 "LeftLeg1" 40
  42 "LeftLeg2" 41
  43 "LeftButt" 40
  44 "TongueRoot" 18
  45 "TongueMid" 44
  46 "TongueTip" 45
  47 "RightHand" 34
  48 "RightBall" 47
  49 "LeftHand" 35
  50 "LeftBall" 49
  51 "RightFoot" 38
  52 "LeftFoot" 42
  53 "RightEar" 4
  54 "RightEarTip" 53
  55 "LeftEar" 4
  56 "LeftEarTip" 55
  57 "LeftEyeBrow" 4
  58 "LeftEyeBrowFrontTip" 57
  59 "LeftEyeBrowBackTip" 57
  60 "RightEyeBrow" 4
  61 "RightEyeBrowFrontTip" 60
  62 "RightEyeBrowBackTip" 60
  63 "HairBack1" 4
  64 "jiggle_hair2" 63
  65 "jiggle_hair1" 4
  66 "jiggle_hair4" 65
  67 "jiggle_hair5" 65
  68 "jiggle_hair3" 4
  69 "TailBase" 0
  70 "Tail1" 69
  71 "Tail2" 70
  72 "Tail3" 71
  73 "jiggle_tail1" 72
  74 "jiggle_tail2" 73
  75 "jiggle_tail3" 73
  76 "jiggle_tail4" 72
end
skeleton
time 0
    0 0.000000 4.480469 25.421875 1.570797 0.208736 -1.570794
    1 6.953907 -0.000027 0.000024 -0.000001 0.000001 0.415524
    2 4.682413 -0.405878 0.000020 -0.000002 0.000002 0.444279
    3 3.749708 0.903492 0.000018 -0.000004 0.000003 0.837279
    4 6.337053 0.083176 0.000050 0.000002 0.000004 0.127581
    5 2.389973 -10.280872 0.000034 0.000000 -0.000003 -0.000002
    6 0.620613 -4.643559 5.690916 1.577955 -0.845453 -1.565157
    7 0.620716 -4.643579 -5.690948 -1.563668 -0.845453 1.576458
    8 0.507450 -8.914431 0.000017 0.000000 -0.000004 0.000000
    9 0.017334 -3.634377 0.000013 0.000000 0.000000 0.000000
    10 0.132607 2.936821 -2.461558 0.000000 0.000000 0.000000
    11 0.132576 2.936829 2.461488 -3.141589 0.000010 -3.141593
    12 -0.429947 -4.431442 0.853016 0.000000 -0.000003 0.000000
    13 -0.278790 -1.416372 3.218462 -0.000005 0.000001 0.000000
    14 -0.278763 -1.416397 -3.218526 -0.000005 0.000001 0.000000
    15 -0.429943 -4.431442 -0.853079 3.141591 -0.000002 -3.141593
    16 -0.469639 -3.109697 -2.235132 -1.595599 0.960417 -1.591119
    17 -0.469654 -3.109695 2.235065 1.545989 0.960420 1.550475
    18 -0.262550 2.416431 -0.000006 0.000000 0.000000 0.000000
    19 -1.082455 -5.727777 0.965058 0.000002 0.000001 0.000000
    20 -1.082451 -5.727772 -0.964517 0.000002 0.000000 0.000000
    21 -0.683910 -4.816771 1.865056 0.610163 -0.002567 0.008155
    22 -0.683895 -4.816765 -1.864513 -0.610156 0.002565 0.008147
    23 -1.053082 -4.694998 -0.004812 -3.140306 1.569774 0.001283
    24 2.425198 -2.013369 -0.014160 -0.000003 -0.000010 -0.000002
    25 -2.434481 -2.568668 -0.265701 -0.000003 -0.002024 0.000006
    26 5.944313 -7.721682 -5.720582 2.493896 -0.150961 0.005622
    27 4.525848 -0.536758 0.790966 0.000005 -0.151474 -0.000001
    28 -3.576569 0.104328 -0.377171 -0.000014 -0.151595 -0.000029
    29 5.944202 -7.721659 5.720666 -0.647703 -0.150952 -3.135959
    30 -4.525867 -0.536723 0.790964 0.000009 0.151491 0.000001
    31 3.576584 0.104319 -0.377188 -0.000018 0.151600 0.000027
    32 0.519129 -2.782701 2.954543 0.000017 -0.000001 -2.752146
    33 0.519152 -2.782702 -2.954541 -0.000003 0.000003 0.389434
    34 5.999041 -0.468328 -0.000059 -0.000007 -0.000033 0.505735
    35 -5.999002 0.468194 -0.000048 0.000000 0.000002 0.505751
    36 -0.092030 -0.043560 2.498756 0.017055 -0.166797 -1.464538
    37 6.565136 0.167155 0.452909 -0.084036 0.325264 -1.755839
    38 2.869534 3.950911 -0.279367 -0.100577 0.066069 1.723359
    39 -0.009348 -2.674142 0.925932 -1.553235 0.068626 0.069439
    40 -0.092015 -0.043579 -2.498748 0.017057 -0.166695 1.677054
    41 -6.565081 -0.167150 -0.453667 -0.083924 0.325274 -1.755818
    42 -2.869482 -3.950938 0.279391 -0.100585 0.066020 1.723379
    43 0.009441 2.674145 -0.925961 1.588348 0.068504 0.069440
    44 -1.737062 0.486078 -0.004826 -3.140736 1.569773 0.000854
    45 -0.002573 1.823074 -0.373499 -0.000003 0.000003 0.000001
    46 0.002346 1.584520 -0.210842 0.000000 0.000000 0.000000
    47 10.428112 -0.000042 -0.000503 -0.034160 -0.148070 0.251802
    48 3.940221 -0.000077 -0.000038 0.000000 -0.000022 0.522239
    49 -10.428070 0.000043 -0.000121 -0.034109 -0.148117 0.251771
    50 -3.940206 -0.000009 -0.000010 -0.000001 -0.000001 0.522261
    51 12.297129 0.000095 0.000840 0.120279 -0.137350 0.705550
    52 -12.296920 0.000073 -0.000012 0.120331 -0.137308 0.705516
    53 12.090763 4.060755 7.452755 -0.000017 -1.396273 -0.045121
    54 0.842445 0.012773 -3.052376 0.000000 -0.174532 -0.000001
    55 12.090897 4.060728 -7.452600 -3.141576 -1.396254 3.096439
    56 -0.842445 0.012774 -3.052383 -0.000001 0.174533 -0.000002
    57 11.674660 -8.840921 -5.575033 2.502134 -0.029599 -0.085602
    58 -0.048878 1.013638 0.017708 -0.098017 0.000067 0.000038
    59 -0.054592 -1.071875 -0.038254 0.166349 0.000009 0.000029
    60 11.674545 -8.840900 5.575232 -0.639428 -0.029672 3.056028
    61 0.048836 1.013646 0.017681 -0.098046 0.000019 -0.000012
    62 0.054611 -1.071875 -0.038224 0.166320 0.000070 -0.000007
    63 4.818012 6.432271 -2.477660 1.044173 0.749988 2.727845
    64 5.815542 1.969791 -2.990970 -3.004460 0.263899 -2.250429
    65 17.149845 -5.194407 1.823608 -1.330305 0.027363 3.118448
    66 0.274078 4.799661 8.177111 -1.602956 1.270271 -1.327356
    67 -0.041874 -3.924336 5.591427 0.943024 1.120778 0.805261
    68 16.508205 -8.145329 -5.369367 2.218405 -0.077157 -2.435132
    69 -2.145761 1.073692 -0.000007 -0.000002 -0.000002 0.208737
    70 0.847030 1.387203 0.000002 0.007628 -0.137082 2.719486
    71 11.546572 0.000032 -0.000010 -0.163424 -0.205034 1.092732
    72 9.715609 -0.000153 0.000021 -0.000005 -0.000039 0.876282
    73 7.795498 3.973995 -0.142122 -1.508488 0.281043 -1.504903
    74 -1.623896 0.322034 8.757258 -0.000005 0.287122 0.000008
    75 5.093096 0.348490 4.637688 -0.059555 -0.468279 0.053272
    76 3.257372 7.556887 1.274860 -0.609593 -1.221195 -1.637420
time 1
    0 0.000000 4.480469 25.421875 1.570797 0.208736 -1.570794
    1 6.953907 -0.000027 0.000024 -0.000001 0.000001 0.415524
    2 4.682413 -0.405878 0.000020 -0.000002 0.000002 0.444279
    3 3.749708 0.903492 0.000018 -0.000004 0.000003 0.837279
    4 6.337053 0.083176 0.000050 0.000002 0.000004 0.127581
    5 2.389973 -10.280872 0.000034 0.000000 -0.000003 -0.000002
    6 0.620613 -4.643559 5.690916 1.577955 -0.845453 -1.565157
    7 0.620716 -4.643579 -5.690948 -1.563668 -0.845453 1.576458
    8 0.507450 -8.914431 0.000017 0.000000 -0.000004 0.000000
    9 0.017334 -3.634377 0.000013 0.000000 0.000000 0.000000
    10 0.132607 2.936821 -2.461558 0.000000 0.000000 0.000000
    11 0.132576 2.936829 2.461488 -3.141589 0.000010 -3.141593
    12 -0.429947 -4.431442 0.853016 0.000000 -0.000003 0.000000
    13 -0.278790 -1.416372 3.218462 -0.000005 0.000001 0.000000
    14 -0.278763 -1.416397 -3.218526 -0.000005 0.000001 0.000000
    15 -0.429943 -4.431442 -0.853079 3.141591 -0.000002 -3.141593
    16 -0.469639 -3.109697 -2.235132 -1.595599 0.960417 -1.591119
    17 -0.469654 -3.109695 2.235065 1.545989 0.960420 1.550475
    18 -0.262550 2.416431 -0.000006 0.000000 0.000000 0.000000
    19 -1.082455 -5.727777 0.965058 0.000002 0.000001 0.000000
    20 -1.082451 -5.727772 -0.964517 0.000002 0.000000 0.000000
    21 -0.683910 -4.816771 1.865056 0.610163 -0.002567 0.008155
    22 -0.683895 -4.816765 -1.864513 -0.610156 0.002565 0.008147
    23 -1.053082 -4.694998 -0.004812 -3.140306 1.569774 0.001283
    24 2.425198 -2.013369 -0.014160 -0.000003 -0.000010 -0.000002
    25 -2.434481 -2.568668 -0.265701 -0.000003 -0.002024 0.000006
    26 5.944313 -7.721682 -5.720582 2.493896 -0.150961 0.005622
    27 4.525848 -0.536758 0.790966 0.000005 -0.151474 -0.000001
    28 -3.576569 0.104328 -0.377171 -0.000014 -0.151595 -0.000029
    29 5.944202 -7.721659 5.720666 -0.647703 -0.150952 -3.135959
    30 -4.525867 -0.536723 0.790964 0.000009 0.151491 0.000001
    31 3.576584 0.104319 -0.377188 -0.000018 0.151600 0.000027
    32 0.519129 -2.782701 2.954543 0.000017 -0.000001 -2.752146
    33 0.519152 -2.782702 -2.954541 -0.000003 0.000003 0.389434
    34 5.999041 -0.468328 -0.000059 -0.000007 -0.000033 0.505735
    35 -5.999002 0.468194 -0.000048 0.000000 0.000002 0.505751
    36 -0.092030 -0.043560 2.498756 0.017055 -0.166797 -1.464538
    37 6.565136 0.167155 0.452909 -0.084036 0.325264 -1.755839
    38 2.869534 3.950911 -0.279367 -0.100577 0.066069 1.723359
    39 -0.009348 -2.674142 0.925932 -1.553235 0.068626 0.069439
    40 -0.092015 -0.043579 -2.498748 0.017057 -0.166695 1.677054
    41 -6.565081 -0.167150 -0.453667 -0.083924 0.325274 -1.755818
    42 -2.869482 -3.950938 0.279391 -0.100585 0.066020 1.723379
    43 0.009441 2.674145 -0.925961 1.588348 0.068504 0.069440
    44 -1.737062 0.486078 -0.004826 -3.140736 1.569773 0.000854
    45 -0.002573 1.823074 -0.373499 -0.000003 0.000003 0.000001
    46 0.002346 1.584520 -0.210842 0.000000 0.000000 0.000000
    47 10.428112 -0.000042 -0.000503 -0.034160 -0.148070 0.251802
    48 3.940221 -0.000077 -0.000038 0.000000 -0.000022 0.522239
    49 -10.428070 0.000043 -0.000121 -0.034109 -0.148117 0.251771
    50 -3.940206 -0.000009 -0.000010 -0.000001 -0.000001 0.522261
    51 12.297129 0.000095 0.000840 0.120279 -0.137350 0.705550
    52 -12.296920 0.000073 -0.000012 0.120331 -0.137308 0.705516
    53 12.090763 4.060755 7.452755 -0.000017 -1.396273 -0.045121
    54 0.842445 0.012773 -3.052376 0.000000 -0.174532 -0.000001
    55 12.090897 4.060728 -7.452600 -3.141576 -1.396254 3.096439
    56 -0.842445 0.012774 -3.052383 -0.000001 0.174533 -0.000002
    57 11.674660 -8.840921 -5.575033 2.502134 -0.029599 -0.085602
    58 -0.048878 1.013638 0.017708 -0.098017 0.000067 0.000038
    59 -0.054592 -1.071875 -0.038254 0.166349 0.000009 0.000029
    60 11.674545 -8.840900 5.575232 -0.639428 -0.029672 3.056028
    61 0.048836 1.013646 0.017681 -0.098046 0.000019 -0.000012
    62 0.054611 -1.071875 -0.038224 0.166320 0.000070 -0.000007
    63 4.818012 6.432271 -2.477660 1.044173 0.749988 2.727845
    64 5.815542 1.969791 -2.990970 -3.004460 0.263899 -2.250429
    65 17.149845 -5.194407 1.823608 -1.330305 0.027363 3.118448
    66 0.274078 4.799661 8.177111 -1.602956 1.270271 -1.327356
    67 -0.041874 -3.924336 5.591427 0.943024 1.120778 0.805261
    68 16.508205 -8.145329 -5.369367 2.218405 -0.077157 -2.435132
    69 -2.145761 1.073692 -0.000007 -0.000002 -0.000002 0.208737
    70 0.847030 1.387203 0.000002 0.007628 -0.137082 2.719486
    71 11.546572 0.000032 -0.000010 -0.163424 -0.205034 1.092732
    72 9.715609 -0.000153 0.000021 -0.000005 -0.000039 0.876282
    73 7.795498 3.973995 -0.142122 -1.508488 0.281043 -1.504903
    74 -1.623896 0.322034 8.757258 -0.000005 0.287122 0.000008
    75 5.093096 0.348490 4.637688 -0.059555 -0.468279 0.053272
    76 3.257372 7.556887 1.274860 -0.609593 -1.221195 -1.637420
end
